%YAML 1.1
%TAG !u! tag:unity3d.com,2011:
--- !u!114 &11400000
MonoBehaviour:
  m_ObjectHideFlags: 0
  m_CorrespondingSourceObject: {fileID: 0}
  m_PrefabInternal: {fileID: 0}
  m_GameObject: {fileID: 0}
  m_Enabled: 1
  m_EditorHideFlags: 0
  m_Script: {fileID: 11500000, guid: ae0543fe805424df99fe08ce744cbe49, type: 3}
  m_Name: Bind
  m_EditorClassIdentifier: 
  m_PoseEntries:
  - path: Bones/Hip
    localPosition: {x: 0.016816314, y: -0.13342002, z: 0}
    localRotation: {x: 0, y: 0, z: 0.7071068, w: 0.70710677}
    localScale: {x: 1, y: 1, z: 1}
  - path: Bones/Hip/Spine
    localPosition: {x: 0.36764884, y: 0.000000029802322, z: 0}
    localRotation: {x: 0, y: 0, z: -0.000013179833, w: 1}
    localScale: {x: 1, y: 1, z: 1}
  - path: Bones/Hip/Spine/Neck
    localPosition: {x: 0.4406191, y: 5.0420113e-11, z: 0}
    localRotation: {x: 0, y: 0, z: -0.0045795166, w: 0.9999895}
    localScale: {x: 1, y: 1, z: 1}
  - path: Bones/Hip/Spine/Neck/Head
    localPosition: {x: 0.24, y: -0.000000004425658, z: 0}
    localRotation: {x: 0, y: 0, z: -0.70059794, w: 0.71355623}
    localScale: {x: 1, y: 1, z: 1}
  - path: Bones/Hip/Spine/Neck/Head/Right eye
    localPosition: {x: -0.10106418, y: 0.08735995, z: 0}
    localRotation: {x: 0, y: 0, z: 0.01090805, w: 0.9999405}
    localScale: {x: 1, y: 1, z: 1}
  - path: Bones/Hip/Spine/Neck/Head/Left eye
    localPosition: {x: 0.20418596, y: 0.08208998, z: 0}
    localRotation: {x: 0, y: 0, z: 0.035508197, w: 0.99936944}
    localScale: {x: 1, y: 1, z: 1}
  - path: Bones/Hip/Spine/Neck/Head/left lash
    localPosition: {x: 0.22183186, y: 0.1559148, z: 0}
    localRotation: {x: -0, y: -0, z: -0.0045703948, w: 0.9999896}
    localScale: {x: 1, y: 1, z: 1}
  - path: Bones/Hip/Spine/Neck/Head/right lash
    localPosition: {x: -0.1474261, y: 0.17222348, z: 0}
    localRotation: {x: -0, y: -0, z: -0.0045703948, w: 0.9999896}
    localScale: {x: 1, y: 1, z: 1}
  - path: Bones/Hip/Spine/Neck/Head/New bone (1)
    localPosition: {x: -0.013826186, y: -0.14422935, z: 0}
    localRotation: {x: -0, y: -0, z: -0.9950525, w: -0.099350095}
    localScale: {x: 1, y: 1, z: 1}
  - path: Bones/Hip/Spine/Neck/Head/New bone
    localPosition: {x: 0.05197912, y: -0.1451639, z: 0}
    localRotation: {x: -0, y: -0, z: -0.09903714, w: -0.9950838}
    localScale: {x: 1, y: 1, z: 1}
  - path: Bones/Hip/Spine/Neck/Head/Right hair
    localPosition: {x: -0.24139549, y: 0.42287, z: 0}
    localRotation: {x: 0, y: 0, z: -0.7071068, w: 0.7071068}
    localScale: {x: 1, y: 1, z: 1}
  - path: Bones/Hip/Spine/Neck/Head/Right hair/Tail 1
    localPosition: {x: 0.63763976, y: 0, z: 0}
    localRotation: {x: 0, y: 0, z: -0.16166115, w: 0.9868464}
    localScale: {x: 1, y: 1, z: 1}
  - path: Bones/Hip/Spine/Neck/Head/Left hair
    localPosition: {x: 0.27844107, y: 0.21776466, z: 0}
    localRotation: {x: 0, y: 0, z: -0.70710605, w: 0.7071076}
    localScale: {x: 1, y: 1, z: 1}
  - path: Bones/Hip/Spine/Neck/Head/Left hair/Tail 1
    localPosition: {x: 0.39629817, y: -0.000000029802322, z: 0}
    localRotation: {x: 0, y: 0, z: 0.079993084, w: 0.9967955}
    localScale: {x: 1, y: 1, z: 1}
  - path: Bones/Hip/Spine/Neck/Head/New bone (2)
    localPosition: {x: 0.0660364, y: 0.6243406, z: 0}
    localRotation: {x: -0, y: -0, z: -0.11853786, w: 0.9929496}
    localScale: {x: 1.0000001, y: 1.0000001, z: 1}
  - path: Bones/Hip/Spine/Neck/Head/New bone (2)/New bone (1)
    localPosition: {x: 0.10722543, y: 0.004454146, z: 0}
    localRotation: {x: -0, y: -0, z: -0, w: 1}
    localScale: {x: 1, y: 1, z: 1}
  - path: Bones/Hip/Spine/Neck/Head/New bone (2)/New bone (1)/New bone3
    localPosition: {x: 0.10999991, y: -0.00000007497147, z: 0}
    localRotation: {x: 0, y: 0, z: -0.6147845, w: 0.7886952}
    localScale: {x: 1, y: 1, z: 1}
  - path: Bones/Hip/Spine/Neck/Head/New bone (2)/New bone
    localPosition: {x: -0.09818814, y: -0.043315556, z: 0}
    localRotation: {x: -0, y: -0, z: -0.9746799, w: 0.22360495}
    localScale: {x: 1, y: 1, z: 1}
  - path: Bones/Hip/Spine/Neck/Head/fringe
    localPosition: {x: 0.08575067, y: 0.59851074, z: 0}
    localRotation: {x: 0, y: 0, z: -0.7071068, w: 0.7071068}
    localScale: {x: 1, y: 1, z: 1}
  - path: Bones/Hip/Spine/Neck/Head/fringe 4
    localPosition: {x: 0.40309146, y: 0.45636708, z: 0}
    localRotation: {x: 0, y: 0, z: -0.7071068, w: 0.7071068}
    localScale: {x: 0.99999994, y: 0.99999994, z: 1}
  - path: Bones/Hip/Spine/Neck/Head/fringe 4/frgine 4.2
    localPosition: {x: 0.15000018, y: -0, z: 0}
    localRotation: {x: 0, y: 0, z: 0, w: 1}
    localScale: {x: 1, y: 1, z: 1}
  - path: Bones/Hip/Spine/Neck/Head/fringe 4/frgine 4.2/fringe 4.3
    localPosition: {x: 0.19000009, y: 0, z: 0}
    localRotation: {x: 0, y: 0, z: -0.08421591, w: 0.99644756}
    localScale: {x: 1, y: 1, z: 1}
  - path: Bones/Hip/Spine/Neck/Head/fringe 4/frgine 4.2/fringe 4.3/fringe4.4
    localPosition: {x: 0.25083318, y: 4.240519e-10, z: 0}
    localRotation: {x: 0, y: 0, z: -0.11449694, w: 0.99342364}
    localScale: {x: 1, y: 1, z: 1}
  - path: Bones/Hip/Spine/Right arm
    localPosition: {x: 0.28534672, y: 0.21365587, z: 0}
    localRotation: {x: 0, y: 0, z: 0.9976909, w: 0.067918494}
    localScale: {x: 1, y: 1, z: 1}
  - path: Bones/Hip/Spine/Right arm/Right forearm
    localPosition: {x: 0.46000004, y: 0, z: 0}
    localRotation: {x: 0, y: 0, z: -0.02259342, w: 0.9997448}
    localScale: {x: 1, y: 1, z: 1}
  - path: Bones/Hip/Spine/Right arm/Right forearm/Right hand
    localPosition: {x: 0.31999984, y: 0.000000025606425, z: 0}
    localRotation: {x: 0, y: 0, z: 0.00086316746, w: 0.99999964}
    localScale: {x: 1, y: 1, z: 1}
  - path: Bones/Hip/Spine/Left arm
    localPosition: {x: 0.28946954, y: -0.20602614, z: 0}
    localRotation: {x: -0, y: -0, z: -0.9982297, w: 0.059477374}
    localScale: {x: 1, y: 1, z: 1}
  - path: Bones/Hip/Spine/Left arm/Left forearm
    localPosition: {x: 0.4300001, y: 0, z: 0}
    localRotation: {x: 0, y: 0, z: 0.03957737, w: 0.99921656}
    localScale: {x: 1, y: 1, z: 1}
  - path: Bones/Hip/Spine/Left arm/Left forearm/Left hand
    localPosition: {x: 0.31000024, y: -0.0000000090220595, z: 0}
    localRotation: {x: 0, y: 0, z: -0.0011835156, w: 0.9999993}
    localScale: {x: 1, y: 1, z: 1}
  - path: Bones/Hip/Right leg
    localPosition: {x: -0.27748418, y: 0.15955284, z: 0}
    localRotation: {x: 0, y: 0, z: 0.99996156, w: 0.008770429}
    localScale: {x: 1, y: 1, z: 1}
  - path: Bones/Hip/Right leg/Right calf
    localPosition: {x: 0.5600002, y: -0.0000000037252903, z: 0}
    localRotation: {x: 0, y: 0, z: 0, w: 1}
    localScale: {x: 1, y: 1, z: 1}
  - path: Bones/Hip/Right leg/Right calf/Right foot
    localPosition: {x: 0.6873922, y: 0.0000000021718733, z: 0}
    localRotation: {x: 0, y: 0, z: -0.4947451, w: -0.86903816}
    localScale: {x: 1, y: 1, z: 1}
  - path: Bones/Hip/Left leg
    localPosition: {x: -0.2545631, y: -0.16279835, z: 0}
    localRotation: {x: 0, y: 0, z: 0.99991816, w: 0.01279279}
    localScale: {x: 1, y: 1, z: 1}
  - path: Bones/Hip/Left leg/Left calf
    localPosition: {x: 0.53000003, y: 0.000000018626451, z: 0}
    localRotation: {x: 0, y: 0, z: -0.0013372134, w: 0.9999991}
    localScale: {x: 1, y: 1, z: 1}
  - path: Bones/Hip/Left leg/Left calf/Left foot
    localPosition: {x: 0.7159932, y: 0.000000011168595, z: 0}
    localRotation: {x: 0, y: 0, z: -0.6088139, w: -0.7933131}
    localScale: {x: 1, y: 1, z: 1}
